Powered by StreetViewConverter v2017.1.021 from https://www.assetstore.unity3d.com/en/#!/content/28512
Support: sss1024@gmail.com 
https://www.google.com/maps/place/Litchfield+Park+Territorio+del+Norte+0822,+Australia/@-13.1638537,130.6841881,2a,75y,78h,88.4t/data=!3m6!1e1!3m4!1smHq0xGi4FrXAa2Axdd893A!2e0!7i13312!8i6656!4m5!3m4!1s0x2cbf1e6f8805c8d5:0x40217a82a254860!8m2!3d-13.1291949!4d130.8029829
